\babel@toc {russian}{}
\contentsline {section}{\IeC {\CYRV }\IeC {\cyrv }\IeC {\cyre }\IeC {\cyrd }\IeC {\cyre }\IeC {\cyrn }\IeC {\cyri }\IeC {\cyre }}{2}% 
\contentsline {section}{\numberline {1.}\IeC {\CYRT }\IeC {\cyre }\IeC {\cyro }\IeC {\cyrr }\IeC {\cyre }\IeC {\cyrt }\IeC {\cyri }\IeC {\cyrch }\IeC {\cyre }\IeC {\cyrs }\IeC {\cyrk }\IeC {\cyra }\IeC {\cyrya } \IeC {\cyrch }\IeC {\cyra }\IeC {\cyrs }\IeC {\cyrt }\IeC {\cyrsftsn }}{2}% 
\contentsline {subsection}{\numberline {1.1.}\IeC {\CYRK }\IeC {\cyrr }\IeC {\cyri }\IeC {\cyrt }\IeC {\cyre }\IeC {\cyrr }\IeC {\cyri }\IeC {\cyrishrt } \IeC {\cyrs }\IeC {\cyre }\IeC {\cyrr }\IeC {\cyri }\IeC {\cyra }\IeC {\cyrl }\IeC {\cyrsftsn }\IeC {\cyrn }\IeC {\cyro }\IeC {\cyrishrt } \IeC {\cyrk }\IeC {\cyro }\IeC {\cyrr }\IeC {\cyrr }\IeC {\cyre }\IeC {\cyrl }\IeC {\cyrya }\IeC {\cyrc }\IeC {\cyri }\IeC {\cyri }}{2}% 
\contentsline {subsection}{\numberline {1.2.}\IeC {\CYRK }\IeC {\cyrr }\IeC {\cyri }\IeC {\cyrt }\IeC {\cyre }\IeC {\cyrr }\IeC {\cyri }\IeC {\cyrishrt } \IeC {\CYRU }\IeC {\cyra }\IeC {\cyrishrt }\IeC {\cyrl }\IeC {\cyrd }\IeC {\cyra }-\IeC {\CYRV }\IeC {\cyro }\IeC {\cyrl }\IeC {\cyrsftsn }\IeC {\cyrf }\IeC {\cyro }\IeC {\cyrv }\IeC {\cyri }\IeC {\cyrc }\IeC {\cyra }}{2}% 
\contentsline {subsection}{\numberline {1.3.}\IeC {\CYRF }\IeC {\cyro }\IeC {\cyrr }\IeC {\cyrm }\IeC {\cyru }\IeC {\cyrl }\IeC {\cyri }\IeC {\cyrr }\IeC {\cyro }\IeC {\cyrv }\IeC {\cyrk }\IeC {\cyra } \IeC {\cyrg }\IeC {\cyri }\IeC {\cyrp }\IeC {\cyro }\IeC {\cyrt }\IeC {\cyre }\IeC {\cyrz }}{2}% 
\contentsline {subsection}{\numberline {1.4.}\IeC {\CYRR }\IeC {\cyra }\IeC {\cyrs }\IeC {\cyrs }\IeC {\cyrch }\IeC {\cyre }\IeC {\cyrt } \IeC {\cyrm }\IeC {\cyra }\IeC {\cyrt }\IeC {\cyre }\IeC {\cyrm }\IeC {\cyra }\IeC {\cyrt }\IeC {\cyri }\IeC {\cyrch }\IeC {\cyre }\IeC {\cyrs }\IeC {\cyrk }\IeC {\cyro }\IeC {\cyrg }\IeC {\cyro } \IeC {\cyro }\IeC {\cyrzh }\IeC {\cyri }\IeC {\cyrd }\IeC {\cyra }\IeC {\cyrn }\IeC {\cyri }\IeC {\cyrya } \IeC {\cyri } \IeC {\cyrd }\IeC {\cyri }\IeC {\cyrs }\IeC {\cyrp }\IeC {\cyre }\IeC {\cyrr }\IeC {\cyrs }\IeC {\cyri }\IeC {\cyri }}{3}% 
\contentsline {subsection}{\numberline {1.5.}\IeC {\CYRP }\IeC {\cyrr }\IeC {\cyro }\IeC {\cyrv }\IeC {\cyre }\IeC {\cyrr }\IeC {\cyrk }\IeC {\cyra } \IeC {\cyrg }\IeC {\cyri }\IeC {\cyrp }\IeC {\cyro }\IeC {\cyrt }\IeC {\cyre }\IeC {\cyrz }}{3}% 
\contentsline {section}{\numberline {2.}\IeC {\CYRP }\IeC {\cyrr }\IeC {\cyra }\IeC {\cyrk }\IeC {\cyrt }\IeC {\cyri }\IeC {\cyrch }\IeC {\cyre }\IeC {\cyrs }\IeC {\cyrk }\IeC {\cyra }\IeC {\cyrya } \IeC {\cyrch }\IeC {\cyra }\IeC {\cyrs }\IeC {\cyrt }\IeC {\cyrsftsn }}{3}% 
\contentsline {section}{\numberline {3.}\IeC {\CYRP }\IeC {\cyrr }\IeC {\cyri }\IeC {\cyrm }\IeC {\cyre }\IeC {\cyrr } \IeC {\cyrr }\IeC {\cyra }\IeC {\cyrb }\IeC {\cyro }\IeC {\cyrt }\IeC {\cyrery } \IeC {\cyrp }\IeC {\cyrr }\IeC {\cyro }\IeC {\cyrg }\IeC {\cyrr }\IeC {\cyra }\IeC {\cyrm }\IeC {\cyrm }\IeC {\cyrery }}{4}% 
\contentsline {section}{\numberline {4.}\IeC {\CYRL }\IeC {\cyri }\IeC {\cyrs }\IeC {\cyrt }\IeC {\cyri }\IeC {\cyrn }\IeC {\cyrg } \IeC {\cyrm }\IeC {\cyre }\IeC {\cyrt }\IeC {\cyro }\IeC {\cyrd }\IeC {\cyra }}{4}% 
