# Fdb version 3
["pdflatex"] 1577182867 "/Users/thyron/Desktop/lecs/mod/labs/lab7/report/report.tex" "/Users/thyron/Desktop/lecs/mod/labs/lab7/report/report.pdf" "report" 1577182897
  "/Users/thyron/Desktop/lecs/mod/labs/lab7/report/report.aux" 1577182867 1112 03dabe4f8c8b3f9d7e278b9c82b5baa3 ""
  "/Users/thyron/Desktop/lecs/mod/labs/lab7/report/report.tex" 1577180378 3086 b24386a48faa9e7b35e0dd22a9d6c15f ""
  "/Users/thyron/Library/texlive/2018/texmf-var/fonts/tfm/lh/lh-t2a/labx1728.tfm" 1542822276 3312 d199be9bd555944e2403193d58a0256a ""
  "/Users/thyron/Library/texlive/2018/texmf-var/fonts/tfm/lh/lh-t2a/labx2488.tfm" 1543835309 3304 10c1a71cb294f8a8339c46823bcc15f2 ""
  "/Users/thyron/Library/texlive/2018/texmf-var/fonts/tfm/lh/lh-t2a/larm1200.tfm" 1542822281 3240 c2435f2b5cd66d4930bc29b8df87967e ""
  "/Users/thyron/Library/texlive/2018/texmf-var/fonts/tfm/lh/lh-t2a/larm1728.tfm" 1542822262 3252 92d08740ce00199d6cf9ff4aaada81d1 ""
  "/Users/thyron/Library/texlive/2018/texmf-var/fonts/tfm/lh/lh-t2a/larm2488.tfm" 1543835304 3264 102508a989355317d27912fb22a38399 ""
  "/usr/local/texlive/2018/texmf-dist/fonts/enc/dvips/cm-super/cm-super-t2a.enc" 1480098666 3141 82d5616418ed8d5de703b3951bedecb4 ""
  "/usr/local/texlive/2018/texmf-dist/fonts/map/fontname/texfonts.map" 1511824771 3332 103109f5612ad95229751940c61aada0 ""
  "/usr/local/texlive/2018/texmf-dist/fonts/tfm/public/amsfonts/cmextra/cmex7.tfm" 1480098698 1004 54797486969f23fa377b128694d548df ""
  "/usr/local/texlive/2018/texmf-dist/fonts/tfm/public/amsfonts/cmextra/cmex8.tfm" 1480098698 988 bdf658c3bfc2d96d3c8b02cfc1c94c20 ""
  "/usr/local/texlive/2018/texmf-dist/fonts/tfm/public/amsfonts/symbols/msam10.tfm" 1480098698 916 f87d7c45f9c908e672703b83b72241a3 ""
  "/usr/local/texlive/2018/texmf-dist/fonts/tfm/public/amsfonts/symbols/msam7.tfm" 1480098698 928 2dc8d444221b7a635bb58038579b861a ""
  "/usr/local/texlive/2018/texmf-dist/fonts/tfm/public/amsfonts/symbols/msbm10.tfm" 1480098698 908 2921f8a10601f252058503cc6570e581 ""
  "/usr/local/texlive/2018/texmf-dist/fonts/tfm/public/amsfonts/symbols/msbm7.tfm" 1480098698 940 228d6584342e91276bf566bcf9716b83 ""
  "/usr/local/texlive/2018/texmf-dist/fonts/tfm/public/cm/cmex10.tfm" 1136768653 992 662f679a0b3d2d53c1b94050fdaa3f50 ""
  "/usr/local/texlive/2018/texmf-dist/fonts/tfm/public/cm/cmmi12.tfm" 1136768653 1524 4414a8315f39513458b80dfc63bff03a ""
  "/usr/local/texlive/2018/texmf-dist/fonts/tfm/public/cm/cmmi6.tfm" 1136768653 1512 f21f83efb36853c0b70002322c1ab3ad ""
  "/usr/local/texlive/2018/texmf-dist/fonts/tfm/public/cm/cmmi8.tfm" 1136768653 1520 eccf95517727cb11801f4f1aee3a21b4 ""
  "/usr/local/texlive/2018/texmf-dist/fonts/tfm/public/cm/cmr12.tfm" 1136768653 1288 655e228510b4c2a1abe905c368440826 ""
  "/usr/local/texlive/2018/texmf-dist/fonts/tfm/public/cm/cmr6.tfm" 1136768653 1300 b62933e007d01cfd073f79b963c01526 ""
  "/usr/local/texlive/2018/texmf-dist/fonts/tfm/public/cm/cmr8.tfm" 1136768653 1292 21c1c5bfeaebccffdb478fd231a0997d ""
  "/usr/local/texlive/2018/texmf-dist/fonts/tfm/public/cm/cmsy10.tfm" 1136768653 1124 6c73e740cf17375f03eec0ee63599741 ""
  "/usr/local/texlive/2018/texmf-dist/fonts/tfm/public/cm/cmsy6.tfm" 1136768653 1116 933a60c408fc0a863a92debe84b2d294 ""
  "/usr/local/texlive/2018/texmf-dist/fonts/tfm/public/cm/cmsy8.tfm" 1136768653 1120 8b7d695260f3cff42e636090a8002094 ""
  "/usr/local/texlive/2018/texmf-dist/fonts/type1/public/amsfonts/cm/cmr12.pfb" 1480098733 32722 d7379af29a190c3f453aba36302ff5a9 ""
  "/usr/local/texlive/2018/texmf-dist/fonts/type1/public/amsfonts/cm/cmsy10.pfb" 1480098733 32569 5e5ddc8df908dea60932f3c484a54c0d ""
  "/usr/local/texlive/2018/texmf-dist/fonts/type1/public/cm-super/sfbx1728.pfb" 1480098737 139826 9213617a7cb78635fc326b859c0b2273 ""
  "/usr/local/texlive/2018/texmf-dist/fonts/type1/public/cm-super/sfbx2488.pfb" 1480098737 135938 299ac3a69892db3b7674a8b2543b0a77 ""
  "/usr/local/texlive/2018/texmf-dist/fonts/type1/public/cm-super/sfrm1200.pfb" 1480098737 136101 f533469f523533d38317ab5729d00c8a ""
  "/usr/local/texlive/2018/texmf-dist/fonts/type1/public/cm-super/sfrm1728.pfb" 1480098737 131438 3aa300b3e40e5c8ba7b4e5c6cebc5dd6 ""
  "/usr/local/texlive/2018/texmf-dist/tex/context/base/mkii/supp-pdf.mkii" 1480098806 71627 94eb9990bed73c364d7f53f960cc8c5b ""
  "/usr/local/texlive/2018/texmf-dist/tex/generic/babel-english/english.ldf" 1496785618 7008 9ff5fdcc865b01beca2b0fe4a46231d4 ""
  "/usr/local/texlive/2018/texmf-dist/tex/generic/babel-russian/russianb.ldf" 1502400048 26091 c8ae0c5e664e3887bd445441d24e5ab6 ""
  "/usr/local/texlive/2018/texmf-dist/tex/generic/babel/babel.def" 1542149371 74097 730193adbb112990f38051a05f35ac11 ""
  "/usr/local/texlive/2018/texmf-dist/tex/generic/babel/babel.sty" 1542149371 16329 4c42e43c85185e6cb0936a628ade375c ""
  "/usr/local/texlive/2018/texmf-dist/tex/generic/babel/switch.def" 1542149371 13310 fcb0ad08386d450f0c718feed9fe2fee ""
  "/usr/local/texlive/2018/texmf-dist/tex/generic/babel/txtbabel.def" 1528235896 7435 6c566fc19b3503b2b2da8bb4550f2b58 ""
  "/usr/local/texlive/2018/texmf-dist/tex/generic/ifxetex/ifxetex.sty" 1480098815 1458 43ab4710dc82f3edeabecd0d099626b2 ""
  "/usr/local/texlive/2018/texmf-dist/tex/generic/oberdiek/etexcmds.sty" 1463608860 7612 729a8cc22a1ee0029997c7f74717ae05 ""
  "/usr/local/texlive/2018/texmf-dist/tex/generic/oberdiek/ifluatex.sty" 1463608860 7324 2310d1247db0114eb4726807c8837a0e ""
  "/usr/local/texlive/2018/texmf-dist/tex/generic/oberdiek/ifpdf.sty" 1536443070 1300 96620a7d94bc0ceb261d968770ce8315 ""
  "/usr/local/texlive/2018/texmf-dist/tex/generic/oberdiek/ifvtex.sty" 1463608860 6797 90b7f83b0ad46826bc16058b1e3d48df ""
  "/usr/local/texlive/2018/texmf-dist/tex/generic/oberdiek/infwarerr.sty" 1463608860 8253 473e0e41f9adadb1977e8631b8f72ea6 ""
  "/usr/local/texlive/2018/texmf-dist/tex/generic/oberdiek/kvdefinekeys.sty" 1463608860 5152 b67a3a964ad9851e095110c854a1d461 ""
  "/usr/local/texlive/2018/texmf-dist/tex/generic/oberdiek/kvsetkeys.sty" 1463608860 14040 ac8866aac45982ac84021584b0abb252 ""
  "/usr/local/texlive/2018/texmf-dist/tex/generic/oberdiek/ltxcmds.sty" 1463608860 18425 5b3c0c59d76fac78978b5558e83c1f36 ""
  "/usr/local/texlive/2018/texmf-dist/tex/generic/oberdiek/pdftexcmds.sty" 1536701967 20457 0d2e642faacbb41c9d72690f8cc529cd ""
  "/usr/local/texlive/2018/texmf-dist/tex/latex/amsfonts/amsfonts.sty" 1480098820 5949 3f3fd50a8cc94c3d4cbf4fc66cd3df1c ""
  "/usr/local/texlive/2018/texmf-dist/tex/latex/amsfonts/amssymb.sty" 1480098820 13829 94730e64147574077f8ecfea9bb69af4 ""
  "/usr/local/texlive/2018/texmf-dist/tex/latex/amsfonts/umsa.fd" 1480098820 961 6518c6525a34feb5e8250ffa91731cff ""
  "/usr/local/texlive/2018/texmf-dist/tex/latex/amsfonts/umsb.fd" 1480098820 961 d02606146ba5601b5645f987c92e6193 ""
  "/usr/local/texlive/2018/texmf-dist/tex/latex/amsmath/amsbsy.sty" 1523134290 2211 ca7ce284ab93c8eecdc6029dc5ccbd73 ""
  "/usr/local/texlive/2018/texmf-dist/tex/latex/amsmath/amsgen.sty" 1523134290 4161 7f6eb9092061a11f87d08ed13515b48d ""
  "/usr/local/texlive/2018/texmf-dist/tex/latex/amsmath/amsmath.sty" 1544567569 85093 77cfa18ddbae4d9b74ade33d843686d3 ""
  "/usr/local/texlive/2018/texmf-dist/tex/latex/amsmath/amsopn.sty" 1523134290 4116 32e6abd27229755a83a8b7f18e583890 ""
  "/usr/local/texlive/2018/texmf-dist/tex/latex/amsmath/amstext.sty" 1523134290 2432 8ff93b1137020e8f21930562a874ae66 ""
  "/usr/local/texlive/2018/texmf-dist/tex/latex/base/fontenc.sty" 1544567569 4573 e9e01f5b11821a77b916dad378cb86b8 ""
  "/usr/local/texlive/2018/texmf-dist/tex/latex/base/inputenc.sty" 1544567569 5052 b64c57f4a38aae0d2745f8298fa50814 ""
  "/usr/local/texlive/2018/texmf-dist/tex/latex/base/omscmr.fd" 1523050425 2472 aa08940f0a4dc6c24ae9f943b04ae0b9 ""
  "/usr/local/texlive/2018/texmf-dist/tex/latex/base/report.cls" 1544567569 22992 ac205d2578ad3f18cf73b50579632d1c ""
  "/usr/local/texlive/2018/texmf-dist/tex/latex/base/size12.clo" 1544567569 8305 6a682ae291edd56e2d7accbf95eca451 ""
  "/usr/local/texlive/2018/texmf-dist/tex/latex/base/t2aenc.dfu" 1544567569 9473 6c9edcb80967c36b3562eabc2953c928 ""
  "/usr/local/texlive/2018/texmf-dist/tex/latex/caption/caption.sty" 1539032178 68576 86bbc6bd5a409b3c353fccc1a815fa5b ""
  "/usr/local/texlive/2018/texmf-dist/tex/latex/caption/caption3.sty" 1538606650 68510 943558eecf41da4e76fc614fd7f5deff ""
  "/usr/local/texlive/2018/texmf-dist/tex/latex/cite/cite.sty" 1480098825 26218 19edeff8cdc2bcb704e8051dc55eb5a7 ""
  "/usr/local/texlive/2018/texmf-dist/tex/latex/cyrillic/t2acmr.fd" 1523134385 2562 d9552c7bbba7c739be0e3edc79b79dbb ""
  "/usr/local/texlive/2018/texmf-dist/tex/latex/cyrillic/t2aenc.def" 1523134385 12038 0675a914f4ef655c59b5d82e90103345 ""
  "/usr/local/texlive/2018/texmf-dist/tex/latex/float/float.sty" 1480098828 6749 16d2656a1984957e674b149555f1ea1d ""
  "/usr/local/texlive/2018/texmf-dist/tex/latex/geometry/geometry.sty" 1525727744 41645 0653033a985e06c69a2a9cea9a95e31a ""
  "/usr/local/texlive/2018/texmf-dist/tex/latex/graphics-cfg/color.cfg" 1480098830 1213 620bba36b25224fa9b7e1ccb4ecb76fd ""
  "/usr/local/texlive/2018/texmf-dist/tex/latex/graphics-cfg/graphics.cfg" 1480098830 1224 978390e9c2234eab29404bc21b268d1e ""
  "/usr/local/texlive/2018/texmf-dist/tex/latex/graphics-def/pdftex.def" 1515537368 17334 520b9b85ad8a2a48eda3f643e27a5179 ""
  "/usr/local/texlive/2018/texmf-dist/tex/latex/graphics/color.sty" 1523134385 7028 112f909feb676788e7ea1c5b0b76320f ""
  "/usr/local/texlive/2018/texmf-dist/tex/latex/graphics/graphics.sty" 1523134385 15272 5a97061616e0c8b2aa79c6615ff769f4 ""
  "/usr/local/texlive/2018/texmf-dist/tex/latex/graphics/graphicx.sty" 1523134385 9063 d0a305975932762117cd1f06a582f896 ""
  "/usr/local/texlive/2018/texmf-dist/tex/latex/graphics/keyval.sty" 1523134385 2591 6404d0c7d28505fb38ce0d86c2e28ae7 ""
  "/usr/local/texlive/2018/texmf-dist/tex/latex/graphics/trig.sty" 1523134385 3977 cb9221976ed8a183afad65b59aa8629a ""
  "/usr/local/texlive/2018/texmf-dist/tex/latex/latexconfig/epstopdf-sys.cfg" 1480098833 678 4792914a8f45be57bb98413425e4c7af ""
  "/usr/local/texlive/2018/texmf-dist/tex/latex/listings/listings.cfg" 1536009181 1828 dcfaf5610ea22a61c7baac6f2ca3cb43 ""
  "/usr/local/texlive/2018/texmf-dist/tex/latex/listings/listings.sty" 1536009181 80394 a25e563baccecba00b03b4a462eb4141 ""
  "/usr/local/texlive/2018/texmf-dist/tex/latex/listings/lstlang1.sty" 1536009181 203555 e607ed8f3cb83d0d64c452db0f937212 ""
  "/usr/local/texlive/2018/texmf-dist/tex/latex/listings/lstmisc.sty" 1536009181 77021 1c90ba86bdf6da80a6b661f51d7f0175 ""
  "/usr/local/texlive/2018/texmf-dist/tex/latex/oberdiek/epstopdf-base.sty" 1463608860 12095 5337833c991d80788a43d3ce26bd1c46 ""
  "/usr/local/texlive/2018/texmf-dist/tex/latex/oberdiek/grfext.sty" 1463608860 7075 2fe3d848bba95f139de11ded085e74aa ""
  "/usr/local/texlive/2018/texmf-dist/tex/latex/oberdiek/kvoptions.sty" 1463608860 22417 1d9df1eb66848aa31b18a593099cf45c ""
  "/usr/local/texlive/2018/texmf-dist/tex/latex/t2/mathtext.sty" 1523659710 4742 af4f7a54e5c8f1f435b4d2dd60d5f846 ""
  "/usr/local/texlive/2018/texmf-dist/tex/latex/tools/enumerate.sty" 1523050425 3465 3f63ff30365d38132fb55859c9cabd4d ""
  "/usr/local/texlive/2018/texmf-dist/tex/latex/tools/indentfirst.sty" 1523050425 1615 dba466e323af4fcd4a6acb87444d96c3 ""
  "/usr/local/texlive/2018/texmf-dist/web2c/texmf.cnf" 1544742277 35176 ce7fee66be1fb01dfc6b702a7dbfa0ea ""
  "/usr/local/texlive/2018/texmf-var/fonts/map/pdftex/updmap/pdftex.map" 1545580157 3037438 ecf6cb5016589832fb233145f38af8e8 ""
  "/usr/local/texlive/2018/texmf-var/web2c/pdftex/pdflatex.fmt" 1545580165 4227024 1a45959056e487cf709e7745330762df ""
  "/usr/local/texlive/2018/texmf.cnf" 1523934483 577 0b39adfd7c93507ff20c9c14c2f1a33f ""
  "analitic.tex" 1577182897 2253 e272dc547e5ad48e7954960948aa39de ""
  "intro.tex" 1577182511 1851 342f51231d32af06e45fa7fec12df516 ""
  "report.aux" 1577182867 1112 03dabe4f8c8b3f9d7e278b9c82b5baa3 ""
  "report.tex" 1577180378 3086 b24386a48faa9e7b35e0dd22a9d6c15f ""
  "report.toc" 1577182867 434 53384384405466755077d60079e5513f ""
  "title.tex" 1577180445 1432 88e6f80ce68cc3df8a39069bfdf6c558 ""
  (generated)
  "/Users/thyron/Desktop/lecs/mod/labs/lab7/report/report.log"
  "report.pdf"
  "/Users/thyron/Desktop/lecs/mod/labs/lab7/report/report.pdf"
  "report.toc"
  "report.log"
  "report.aux"
