\babel@toc {russian}{}
\contentsline {chapter}{\numberline {1}\IeC {\nobreakspace }\IeC {\CYRZ }\IeC {\cyra }\IeC {\cyrd }\IeC {\cyra }\IeC {\cyrn }\IeC {\cyri }\IeC {\cyre }}{3}{chapter.1}% 
\contentsline {chapter}{\numberline {2}\IeC {\nobreakspace }\IeC {\CYRP }\IeC {\cyrr }\IeC {\cyra }\IeC {\cyrk }\IeC {\cyrt }\IeC {\cyri }\IeC {\cyrch }\IeC {\cyre }\IeC {\cyrs }\IeC {\cyrk }\IeC {\cyra }\IeC {\cyrya } \IeC {\cyrch }\IeC {\cyra }\IeC {\cyrs }\IeC {\cyrt }\IeC {\cyrsftsn }}{4}{chapter.2}% 
\contentsline {section}{\numberline {2.1} \IeC {\CYRP }\IeC {\cyrr }\IeC {\cyri }\IeC {\cyrm }\IeC {\cyre }\IeC {\cyrr } \IeC {\cyrr }\IeC {\cyra }\IeC {\cyrb }\IeC {\cyro }\IeC {\cyrt }\IeC {\cyrery } \IeC {\cyrp }\IeC {\cyrr }\IeC {\cyro }\IeC {\cyrg }\IeC {\cyrr }\IeC {\cyra }\IeC {\cyrm }\IeC {\cyrm }\IeC {\cyrery }}{4}{section.2.1}% 
\contentsline {section}{\numberline {2.2} \IeC {\CYRR }\IeC {\cyre }\IeC {\cyrz }\IeC {\cyru }\IeC {\cyrl }\IeC {\cyrsftsn }\IeC {\cyrt }\IeC {\cyra }\IeC {\cyrt }\IeC {\cyrery }}{5}{section.2.2}% 
\contentsline {subsection}{\numberline {2.2.1} \IeC {\CYRO }\IeC {\CYRC }\IeC {\CYRK }\IeC {\CYRP }}{5}{subsection.2.2.1}% 
\contentsline {subsubsection}{\numberline {2.2.1.1}\IeC {\CYRS }\IeC {\cyrr }\IeC {\cyra }\IeC {\cyrv }\IeC {\cyrn }\IeC {\cyre }\IeC {\cyrn }\IeC {\cyri }\IeC {\cyre } \IeC {\cyrr }\IeC {\cyre }\IeC {\cyrz }\IeC {\cyru }\IeC {\cyrl }\IeC {\cyrsftsn }\IeC {\cyrt }\IeC {\cyra }\IeC {\cyrt }\IeC {\cyro }\IeC {\cyrv } \IeC {\cyrd }\IeC {\cyrl }\IeC {\cyrya } \textit { \IeC {\cyrerev }\IeC {\cyrk }\IeC {\cyrs }\IeC {\cyrp }\IeC {\cyre }\IeC {\cyrr }\IeC {\cyri }\IeC {\cyrm }\IeC {\cyre }\IeC {\cyrn }\IeC {\cyrt }\IeC {\cyra } \IeC {\textnumero }1}}{6}{subsubsection.2.2.1.1}% 
\contentsline {chapter}{\CYRZ \cyra \cyrk \cyrl \cyryu \cyrch \cyre \cyrn \cyri \cyre }{8}{section*.5}% 
